Super Mario Bros.
…
library(tidyverse)
data(diamonds)
select(diamonds, cut)

## # A tibble: 53,940 x 1
##    cut      
##    <ord>    
##  1 Ideal    
##  2 Premium  
##  3 Good     
##  4 Premium  
##  5 Good     
##  6 Very Good
##  7 Very Good
##  8 Very Good
##  9 Fair     
## 10 Very Good
## # ... with 53,930 more rows
